SignExtend/simulation/qsim/SignExtend.msim.vcd
$comment
	File created using the following command:
		vcd file SignExtend.msim.vcd -direction
$end
$date
	Tue May 07 20:05:26 2019
$end
$version
	ModelSim Version 10.1d
$end
$timescale
	1ps
$end
$scope module SignExtend_vlg_vec_tst $end
$var reg 16 ! a [15:0] $end
$var wire 1 " res [31] $end
$var wire 1 # res [30] $end
$var wire 1 $ res [29] $end
$var wire 1 % res [28] $end
$var wire 1 & res [27] $end
$var wire 1 ' res [26] $end
$var wire 1 ( res [25] $end
$var wire 1 ) res [24] $end
$var wire 1 * res [23] $end
$var wire 1 + res [22] $end
$var wire 1 , res [21] $end
$var wire 1 - res [20] $end
$var wire 1 . res [19] $end
$var wire 1 / res [18] $end
$var wire 1 0 res [17] $end
$var wire 1 1 res [16] $end
$var wire 1 2 res [15] $end
$var wire 1 3 res [14] $end
$var wire 1 4 res [13] $end
$var wire 1 5 res [12] $end
$var wire 1 6 res [11] $end
$var wire 1 7 res [10] $end
$var wire 1 8 res [9] $end
$var wire 1 9 res [8] $end
$var wire 1 : res [7] $end
$var wire 1 ; res [6] $end
$var wire 1 < res [5] $end
$var wire 1 = res [4] $end
$var wire 1 > res [3] $end
$var wire 1 ? res [2] $end
$var wire 1 @ res [1] $end
$var wire 1 A res [0] $end
$var wire 1 B sampler $end
$scope module i1 $end
$var wire 1 C gnd $end
$var wire 1 D vcc $end
$var wire 1 E unknown $end
$var tri1 1 F devclrn $end
$var tri1 1 G devpor $end
$var tri1 1 H devoe $end
$var wire 1 I a~combout [15] $end
$var wire 1 J a~combout [14] $end
$var wire 1 K a~combout [13] $end
$var wire 1 L a~combout [12] $end
$var wire 1 M a~combout [11] $end
$var wire 1 N a~combout [10] $end
$var wire 1 O a~combout [9] $end
$var wire 1 P a~combout [8] $end
$var wire 1 Q a~combout [7] $end
$var wire 1 R a~combout [6] $end
$var wire 1 S a~combout [5] $end
$var wire 1 T a~combout [4] $end
$var wire 1 U a~combout [3] $end
$var wire 1 V a~combout [2] $end
$var wire 1 W a~combout [1] $end
$var wire 1 X a~combout [0] $end
$upscope $end
$upscope $end
$enddefinitions $end
#0
$dumpvars
b1000000000000001 !
1A
0@
0?
0>
0=
0<
0;
0:
09
08
07
06
05
04
03
12
01
00
0/
0.
0-
0,
0+
0*
0)
0(
0'
0&
0%
0$
0#
0"
xB
0C
1D
xE
1F
1G
1H
1X
0W
0V
0U
0T
0S
0R
0Q
0P
0O
0N
0M
0L
0K
0J
1I
$end
#10000
b1000000000000011 !
b1000000000000010 !
0X
1W
0B
0A
1@
#20000
b1000000000000011 !
1X
1B
1A
#30000
b1000000000000111 !
b1000000000000101 !
b1000000000000100 !
0X
0W
1V
0B
0A
0@
1?
#40000
b1000000000000101 !
1X
1B
1A
#50000
b1000000000000111 !
b1000000000000110 !
0X
1W
0B
0A
1@
#60000
b1000000000000111 !
1X
1B
1A
#70000
b1000000000001111 !
b1000000000001011 !
b1000000000001001 !
b1000000000001000 !
0X
0W
0V
1U
0B
0A
0@
0?
1>
#80000
b1000000000001001 !
1X
1B
1A
#90000
b1000000000001011 !
b1000000000001010 !
0X
1W
0B
0A
1@
#100000
b1000000000001011 !
1X
1B
1A
#110000
b1000000000001111 !
b1000000000001101 !
b1000000000001100 !
0X
0W
1V
0B
0A
0@
1?
#120000
b1000000000001101 !
1X
1B
1A
#130000
b1000000000001111 !
b1000000000001110 !
0X
1W
0B
0A
1@
#140000
b1000000000001111 !
1X
1B
1A
#150000
b1000000000011111 !
b1000000000010111 !
b1000000000010011 !
b1000000000010001 !
b1000000000010000 !
0X
0W
0V
0U
1T
0B
0A
0@
0?
0>
1=
#160000
b1000000000010001 !
1X
1B
1A
#170000
b1000000000010011 !
b1000000000010010 !
0X
1W
0B
0A
1@
#180000
b1000000000010011 !
1X
1B
1A
#190000
b1000000000010111 !
b1000000000010101 !
b1000000000010100 !
0X
0W
1V
0B
0A
0@
1?
#200000
b1000000000010101 !
1X
1B
1A
#210000
b1000000000010111 !
b1000000000010110 !
0X
1W
0B
0A
1@
#220000
b1000000000010111 !
1X
1B
1A
#230000
b1000000000011111 !
b1000000000011011 !
b1000000000011001 !
b1000000000011000 !
0X
0W
0V
1U
0B
0A
0@
0?
1>
#240000
b1000000000011001 !
1X
1B
1A
#250000
b1000000000011011 !
b1000000000011010 !
0X
1W
0B
0A
1@
#260000
b1000000000011011 !
1X
1B
1A
#270000
b1000000000011111 !
b1000000000011101 !
b1000000000011100 !
0X
0W
1V
0B
0A
0@
1?
#280000
b1000000000011101 !
1X
1B
1A
#290000
b1000000000011111 !
b1000000000011110 !
0X
1W
0B
0A
1@
#300000
b1000000000011111 !
1X
1B
1A
#310000
b1000000000111111 !
b1000000000101111 !
b1000000000100111 !
b1000000000100011 !
b1000000000100001 !
b1000000000100000 !
0X
0W
0V
0U
0T
1S
0B
0A
0@
0?
0>
0=
1<
#320000
b1000000000100001 !
1X
1B
1A
#330000
b1000000000100011 !
b1000000000100010 !
0X
1W
0B
0A
1@
#340000
b1000000000100011 !
1X
1B
1A
#350000
b1000000000100111 !
b1000000000100101 !
b1000000000100100 !
0X
0W
1V
0B
0A
0@
1?
#360000
b1000000000100101 !
1X
1B
1A
#370000
b1000000000100111 !
b1000000000100110 !
0X
1W
0B
0A
1@
#380000
b1000000000100111 !
1X
1B
1A
#390000
b1000000000101111 !
b1000000000101011 !
b1000000000101001 !
b1000000000101000 !
0X
0W
0V
1U
0B
0A
0@
0?
1>
#400000
b1000000000101001 !
1X
1B
1A
#410000
b1000000000101011 !
b1000000000101010 !
0X
1W
0B
0A
1@
#420000
b1000000000101011 !
1X
1B
1A
#430000
b1000000000101111 !
b1000000000101101 !
b1000000000101100 !
0X
0W
1V
0B
0A
0@
1?
#440000
b1000000000101101 !
1X
1B
1A
#450000
b1000000000101111 !
b1000000000101110 !
0X
1W
0B
0A
1@
#460000
b1000000000101111 !
1X
1B
1A
#470000
b1000000000111111 !
b1000000000110111 !
b1000000000110011 !
b1000000000110001 !
b1000000000110000 !
0X
0W
0V
0U
1T
0B
0A
0@
0?
0>
1=
#480000
b1000000000110001 !
1X
1B
1A
#490000
b1000000000110011 !
b1000000000110010 !
0X
1W
0B
0A
1@
#500000
b1000000000110011 !
1X
1B
1A
#510000
b1000000000110111 !
b1000000000110101 !
b1000000000110100 !
0X
0W
1V
0B
0A
0@
1?
#520000
b1000000000110101 !
1X
1B
1A
#530000
b1000000000110111 !
b1000000000110110 !
0X
1W
0B
0A
1@
#540000
b1000000000110111 !
1X
1B
1A
#550000
b1000000000111111 !
b1000000000111011 !
b1000000000111001 !
b1000000000111000 !
0X
0W
0V
1U
0B
0A
0@
0?
1>
#560000
b1000000000111001 !
1X
1B
1A
#570000
b1000000000111011 !
b1000000000111010 !
0X
1W
0B
0A
1@
#580000
b1000000000111011 !
1X
1B
1A
#590000
b1000000000111111 !
b1000000000111101 !
b1000000000111100 !
0X
0W
1V
0B
0A
0@
1?
#600000
b1000000000111101 !
1X
1B
1A
#610000
b1000000000111111 !
b1000000000111110 !
0X
1W
0B
0A
1@
#620000
b1000000000111111 !
1X
1B
1A
#630000
b1000000001111111 !
b1000000001011111 !
b1000000001001111 !
b1000000001000111 !
b1000000001000011 !
b1000000001000001 !
b1000000001000000 !
0X
0W
0V
0U
0T
0S
1R
0B
0A
0@
0?
0>
0=
0<
1;
#640000
b1000000001000001 !
1X
1B
1A
#650000
b1000000001000011 !
b1000000001000010 !
0X
1W
0B
0A
1@
#660000
b1000000001000011 !
1X
1B
1A
#670000
b1000000001000111 !
b1000000001000101 !
b1000000001000100 !
0X
0W
1V
0B
0A
0@
1?
#680000
b1000000001000101 !
1X
1B
1A
#690000
b1000000001000111 !
b1000000001000110 !
0X
1W
0B
0A
1@
#700000
b1000000001000111 !
1X
1B
1A
#710000
b1000000001001111 !
b1000000001001011 !
b1000000001001001 !
b1000000001001000 !
0X
0W
0V
1U
0B
0A
0@
0?
1>
#720000
b1000000001001001 !
1X
1B
1A
#730000
b1000000001001011 !
b1000000001001010 !
0X
1W
0B
0A
1@
#740000
b1000000001001011 !
1X
1B
1A
#750000
b1000000001001111 !
b1000000001001101 !
b1000000001001100 !
0X
0W
1V
0B
0A
0@
1?
#760000
b1000000001001101 !
1X
1B
1A
#770000
b1000000001001111 !
b1000000001001110 !
0X
1W
0B
0A
1@
#780000
b1000000001001111 !
1X
1B
1A
#790000
b1000000001011111 !
b1000000001010111 !
b1000000001010011 !
b1000000001010001 !
b1000000001010000 !
0X
0W
0V
0U
1T
0B
0A
0@
0?
0>
1=
#800000
b1000000001010001 !
1X
1B
1A
#810000
b1000000001010011 !
b1000000001010010 !
0X
1W
0B
0A
1@
#820000
b1000000001010011 !
1X
1B
1A
#830000
b1000000001010111 !
b1000000001010101 !
b1000000001010100 !
0X
0W
1V
0B
0A
0@
1?
#840000
b1000000001010101 !
1X
1B
1A
#850000
b1000000001010111 !
b1000000001010110 !
0X
1W
0B
0A
1@
#860000
b1000000001010111 !
1X
1B
1A
#870000
b1000000001011111 !
b1000000001011011 !
b1000000001011001 !
b1000000001011000 !
0X
0W
0V
1U
0B
0A
0@
0?
1>
#880000
b1000000001011001 !
1X
1B
1A
#890000
b1000000001011011 !
b1000000001011010 !
0X
1W
0B
0A
1@
#900000
b1000000001011011 !
1X
1B
1A
#910000
b1000000001011111 !
b1000000001011101 !
b1000000001011100 !
0X
0W
1V
0B
0A
0@
1?
#920000
b1000000001011101 !
1X
1B
1A
#930000
b1000000001011111 !
b1000000001011110 !
0X
1W
0B
0A
1@
#940000
b1000000001011111 !
1X
1B
1A
#950000
b1000000001111111 !
b1000000001101111 !
b1000000001100111 !
b1000000001100011 !
b1000000001100001 !
b1000000001100000 !
0X
0W
0V
0U
0T
1S
0B
0A
0@
0?
0>
0=
1<
#960000
b1000000001100001 !
1X
1B
1A
#970000
b1000000001100011 !
b1000000001100010 !
0X
1W
0B
0A
1@
#980000
b1000000001100011 !
1X
1B
1A
#990000
b1000000001100111 !
b1000000001100101 !
b1000000001100100 !
0X
0W
1V
0B
0A
0@
1?
