pruebaUControl/simulation/qsim/pruebaControl.msim.vcd
$comment
	File created using the following command:
		vcd file pruebaControl.msim.vcd -direction
$end
$date
	Mon May 27 10:27:25 2019
$end
$version
	ModelSim Version 10.1d
$end
$timescale
	1ps
$end
$scope module pruebaControl_vlg_vec_tst $end
$var reg 1 ! clk $end
$var wire 1 " aluOP [2] $end
$var wire 1 # aluOP [1] $end
$var wire 1 $ aluOP [0] $end
$var wire 1 % aluSrcA $end
$var wire 1 & aluSrcB [1] $end
$var wire 1 ' aluSrcB [0] $end
$var wire 1 ( branch $end
$var wire 1 ) IorD $end
$var wire 1 * IRwrite $end
$var wire 1 + memRead $end
$var wire 1 , memToReg $end
$var wire 1 - memWrite $end
$var wire 1 . PCsrc [1] $end
$var wire 1 / PCsrc [0] $end
$var wire 1 0 pcWrite $end
$var wire 1 1 regDst $end
$var wire 1 2 regWrite $end
$var wire 1 3 sampler $end
$scope module i1 $end
$var wire 1 4 gnd $end
$var wire 1 5 vcc $end
$var wire 1 6 unknown $end
$var tri1 1 7 devclrn $end
$var tri1 1 8 devpor $end
$var tri1 1 9 devoe $end
$var wire 1 : clk~combout $end
$var wire 1 ; decoder|state~0_combout $end
$var wire 1 < decoder|state~regout $end
$var wire 1 = decoder|state~clkctrl_outclk $end
$var wire 1 > control|state.decode~0_combout $end
$var wire 1 ? control|state.decode~regout $end
$var wire 1 @ control|state.fetch~feeder_combout $end
$var wire 1 A control|state.fetch~regout $end
$var wire 1 B control|state.branchSig~regout $end
$var wire 1 C control|aluSrcB [1] $end
$var wire 1 D control|aluSrcB [0] $end
$upscope $end
$upscope $end
$enddefinitions $end
#0
$dumpvars
0!
0$
0#
0"
0%
1'
0&
0(
0)
1*
1+
0,
0-
0/
0.
10
01
02
x3
04
15
x6
17
18
19
0:
1;
0<
0=
1>
0?
1@
0A
0B
1D
zC
$end
#5000
1!
1:
03
1<
1=
0;
1A
1?
0>
1&
00
0+
0*
#10000
0!
0:
13
#15000
1!
1:
03
0<
0=
1;
#20000
0!
0:
13
#25000
1!
1:
03
1<
1=
0;
1B
0?
0D
1%
1$
1/
1(
0&
0@
0'
#30000
0!
0:
13
#35000
1!
1:
03
0<
0=
1;
#40000
0!
0:
13
#45000
1!
1:
03
1<
1=
0;
0B
0A
1D
1>
0%
0$
0/
0(
10
1+
1*
1@
1'
#50000
0!
0:
13
#55000
1!
1:
03
0<
0=
1;
#60000
0!
0:
13
#65000
1!
1:
03
1<
1=
0;
1A
1?
0>
1&
00
0+
0*
#70000
0!
0:
13
#75000
1!
1:
03
0<
0=
1;
#80000
0!
0:
13
#85000
1!
1:
03
1<
1=
0;
1B
0?
0D
1%
1$
1/
1(
0&
0@
0'
#90000
0!
0:
13
#95000
1!
1:
03
0<
0=
1;
#100000
0!
0:
13
#105000
1!
1:
03
1<
1=
0;
0B
0A
1D
1>
0%
0$
0/
0(
10
1+
1*
1@
1'
#110000
0!
0:
13
#115000
1!
1:
03
0<
0=
1;
#120000
0!
0:
13
#125000
1!
1:
03
1<
1=
0;
1A
1?
0>
1&
00
0+
0*
#130000
0!
0:
13
#135000
1!
1:
03
0<
0=
1;
#140000
0!
0:
13
#145000
1!
1:
03
1<
1=
0;
1B
0?
0D
1%
1$
1/
1(
0&
0@
0'
#150000
0!
0:
13
#155000
1!
1:
03
0<
0=
1;
#160000
0!
0:
13
#165000
1!
1:
03
1<
1=
0;
0B
0A
1D
1>
0%
0$
0/
0(
10
1+
1*
1@
1'
#170000
0!
0:
13
#175000
1!
1:
03
0<
0=
1;
#180000
0!
0:
13
#185000
1!
1:
03
1<
1=
0;
1A
1?
0>
1&
00
0+
0*
#190000
0!
0:
13
#195000
1!
1:
03
0<
0=
1;
#200000
0!
0:
13
#205000
1!
1:
03
1<
1=
0;
1B
0?
0D
1%
1$
1/
1(
0&
0@
0'
#210000
0!
0:
13
#215000
1!
1:
03
0<
0=
1;
#220000
0!
0:
13
#225000
1!
1:
03
1<
1=
0;
0B
0A
1D
1>
0%
0$
0/
0(
10
1+
1*
1@
1'
#230000
0!
0:
13
#235000
1!
1:
03
0<
0=
1;
#240000
0!
0:
13
#245000
1!
1:
03
1<
1=
0;
1A
1?
0>
1&
00
0+
0*
#250000
0!
0:
13
#255000
1!
1:
03
0<
0=
1;
#260000
0!
0:
13
#265000
1!
1:
03
1<
1=
0;
1B
0?
0D
1%
1$
1/
1(
0&
0@
0'
#270000
0!
0:
13
#275000
1!
1:
03
0<
0=
1;
#280000
0!
0:
13
#285000
1!
1:
03
1<
1=
0;
0B
0A
1D
1>
0%
0$
0/
0(
10
1+
1*
1@
1'
#290000
0!
0:
13
#295000
1!
1:
03
0<
0=
1;
#300000
0!
0:
13
#305000
1!
1:
03
1<
1=
0;
1A
1?
0>
1&
00
0+
0*
#310000
0!
0:
13
#315000
1!
1:
03
0<
0=
1;
#320000
0!
0:
13
#325000
1!
1:
03
1<
1=
0;
1B
0?
0D
1%
1$
1/
1(
0&
0@
0'
#330000
0!
0:
13
#335000
1!
1:
03
0<
0=
1;
#340000
0!
0:
13
#345000
1!
1:
03
1<
1=
0;
0B
0A
1D
1>
0%
0$
0/
0(
10
1+
1*
1@
1'
#350000
0!
0:
13
#355000
1!
1:
03
0<
0=
1;
#360000
0!
0:
13
#365000
1!
1:
03
1<
1=
0;
1A
1?
0>
1&
00
0+
0*
#370000
0!
0:
13
#375000
1!
1:
03
0<
0=
1;
#380000
0!
0:
13
#385000
1!
1:
03
1<
1=
0;
1B
0?
0D
1%
1$
1/
1(
0&
0@
0'
#390000
0!
0:
13
#395000
1!
1:
03
0<
0=
1;
#400000
0!
0:
13
#405000
1!
1:
03
1<
1=
0;
0B
0A
1D
1>
0%
0$
0/
0(
10
1+
1*
1@
1'
#410000
0!
0:
13
#415000
1!
1:
03
0<
0=
1;
#420000
0!
0:
13
#425000
1!
1:
03
1<
1=
0;
1A
1?
0>
1&
00
0+
0*
#430000
0!
0:
13
#435000
1!
1:
03
0<
0=
1;
#440000
0!
0:
13
#445000
1!
1:
03
1<
1=
0;
1B
0?
0D
1%
1$
1/
1(
0&
0@
0'
#450000
0!
0:
13
#455000
1!
1:
03
0<
0=
1;
#460000
0!
0:
13
#465000
1!
1:
03
1<
1=
0;
0B
0A
1D
1>
0%
0$
0/
0(
10
1+
1*
1@
1'
#470000
0!
0:
13
#475000
1!
1:
03
0<
0=
1;
#480000
0!
0:
13
#485000
1!
1:
03
1<
1=
0;
1A
1?
0>
1&
00
0+
0*
#490000
0!
0:
13
#495000
1!
1:
03
0<
0=
1;
#500000
0!
0:
13
#505000
1!
1:
03
1<
1=
0;
1B
0?
0D
1%
1$
1/
1(
0&
0@
0'
#510000
0!
0:
13
#515000
1!
1:
03
0<
0=
1;
#520000
0!
0:
13
#525000
1!
1:
03
1<
1=
0;
0B
0A
1D
1>
0%
0$
0/
0(
10
1+
1*
1@
1'
#530000
0!
0:
13
#535000
1!
1:
03
0<
0=
1;
#540000
0!
0:
13
#545000
1!
1:
03
1<
1=
0;
1A
1?
0>
1&
00
0+
0*
#550000
0!
0:
13
#555000
1!
1:
03
0<
0=
1;
#560000
0!
0:
13
#565000
1!
1:
03
1<
1=
0;
1B
0?
0D
1%
1$
1/
1(
0&
0@
0'
#570000
0!
0:
13
#575000
1!
1:
03
0<
0=
1;
#580000
0!
0:
13
#585000
1!
1:
03
1<
1=
0;
0B
0A
1D
1>
0%
0$
0/
0(
10
1+
1*
1@
1'
#590000
0!
0:
13
#595000
1!
1:
03
0<
0=
1;
#600000
0!
0:
13
#605000
1!
1:
03
1<
1=
0;
1A
1?
0>
1&
00
0+
0*
#610000
0!
0:
13
#615000
1!
1:
03
0<
0=
1;
#620000
0!
0:
13
#625000
1!
1:
03
1<
1=
0;
1B
0?
0D
1%
1$
1/
1(
0&
0@
0'
#630000
0!
0:
13
#635000
1!
1:
03
0<
0=
1;
#640000
0!
0:
13
#645000
1!
1:
03
1<
1=
0;
0B
0A
1D
1>
0%
0$
0/
0(
10
1+
1*
1@
1'
#650000
0!
0:
13
#655000
1!
1:
03
0<
0=
1;
#660000
0!
0:
13
#665000
1!
1:
03
1<
1=
0;
1A
1?
0>
1&
00
0+
0*
#670000
0!
0:
13
#675000
1!
1:
03
0<
0=
1;
#680000
0!
0:
13
#685000
1!
1:
03
1<
1=
0;
1B
0?
0D
1%
1$
1/
1(
0&
0@
0'
#690000
0!
0:
13
#695000
1!
1:
03
0<
0=
1;
#700000
0!
0:
13
#705000
1!
1:
03
1<
1=
0;
0B
0A
1D
1>
0%
0$
0/
0(
10
1+
1*
1@
1'
#710000
0!
0:
13
#715000
1!
1:
03
0<
0=
1;
#720000
0!
0:
13
#725000
1!
1:
03
1<
1=
0;
1A
1?
0>
1&
00
0+
0*
#730000
0!
0:
13
#735000
1!
1:
03
0<
0=
1;
#740000
0!
0:
13
#745000
1!
1:
03
1<
1=
0;
1B
0?
0D
1%
1$
1/
1(
0&
0@
0'
#750000
0!
0:
13
#755000
1!
1:
03
0<
0=
1;
#760000
0!
0:
13
#765000
1!
1:
03
1<
1=
0;
0B
0A
1D
1>
0%
0$
0/
0(
10
1+
1*
1@
1'
#770000
0!
0:
13
#775000
1!
1:
03
0<
0=
1;
#780000
0!
0:
13
#785000
1!
1:
03
1<
1=
0;
1A
1?
0>
1&
00
0+
0*
#790000
0!
0:
13
#795000
1!
1:
03
0<
0=
1;
#800000
0!
0:
13
#805000
1!
1:
03
1<
1=
0;
1B
0?
0D
1%
1$
1/
1(
0&
0@
0'
#810000
0!
0:
13
#815000
1!
1:
03
0<
0=
1;
#820000
0!
0:
13
#825000
1!
1:
03
1<
1=
0;
0B
0A
1D
1>
0%
0$
0/
0(
10
1+
1*
1@
1'
#830000
0!
0:
13
#835000
1!
1:
03
0<
0=
1;
#840000
0!
0:
13
#845000
1!
1:
03
1<
1=
0;
1A
1?
0>
1&
00
0+
0*
#850000
0!
0:
13
#855000
1!
1:
03
0<
0=
1;
#860000
0!
0:
13
#865000
1!
1:
03
1<
1=
0;
1B
0?
0D
1%
1$
1/
1(
0&
0@
0'
#870000
0!
0:
13
#875000
1!
1:
03
0<
0=
1;
#880000
0!
0:
13
#885000
1!
1:
03
1<
1=
0;
0B
0A
1D
1>
0%
0$
0/
0(
10
1+
1*
1@
1'
#890000
0!
0:
13
#895000
1!
1:
03
0<
0=
1;
#900000
0!
0:
13
#905000
1!
1:
03
1<
1=
0;
1A
1?
0>
1&
00
0+
0*
#910000
0!
0:
13
#915000
1!
1:
03
0<
0=
1;
#920000
0!
0:
13
#925000
1!
1:
03
1<
1=
0;
1B
0?
0D
1%
1$
1/
1(
0&
0@
0'
#930000
0!
0:
13
#935000
1!
1:
03
0<
0=
1;
#940000
0!
0:
13
#945000
1!
1:
03
1<
1=
0;
0B
0A
1D
1>
0%
0$
0/
0(
10
1+
1*
1@
1'
#950000
0!
0:
13
#955000
1!
1:
03
0<
0=
1;
#960000
0!
0:
13
#965000
1!
1:
03
1<
1=
0;
1A
1?
0>
1&
00
0+
0*
#970000
0!
0:
13
#975000
1!
1:
03
0<
0=
1;
#980000
0!
0:
13
#985000
1!
1:
03
1<
1=
0;
1B
0?
0D
1%
1$
1/
1(
0&
0@
0'
#990000
0!
0:
13
#995000
1!
1:
03
0<
0=
1;
