ShiftLeft/simulation/qsim/ShiftLeft.msim.vcd
$comment
	File created using the following command:
		vcd file ShiftLeft.msim.vcd -direction
$end
$date
	Tue Apr 30 00:51:35 2019
$end
$version
	ModelSim Version 10.1d
$end
$timescale
	1ps
$end
$scope module ShiftLeft_vlg_vec_tst $end
$var reg 32 ! w [31:0] $end
$var wire 1 " y [31] $end
$var wire 1 # y [30] $end
$var wire 1 $ y [29] $end
$var wire 1 % y [28] $end
$var wire 1 & y [27] $end
$var wire 1 ' y [26] $end
$var wire 1 ( y [25] $end
$var wire 1 ) y [24] $end
$var wire 1 * y [23] $end
$var wire 1 + y [22] $end
$var wire 1 , y [21] $end
$var wire 1 - y [20] $end
$var wire 1 . y [19] $end
$var wire 1 / y [18] $end
$var wire 1 0 y [17] $end
$var wire 1 1 y [16] $end
$var wire 1 2 y [15] $end
$var wire 1 3 y [14] $end
$var wire 1 4 y [13] $end
$var wire 1 5 y [12] $end
$var wire 1 6 y [11] $end
$var wire 1 7 y [10] $end
$var wire 1 8 y [9] $end
$var wire 1 9 y [8] $end
$var wire 1 : y [7] $end
$var wire 1 ; y [6] $end
$var wire 1 < y [5] $end
$var wire 1 = y [4] $end
$var wire 1 > y [3] $end
$var wire 1 ? y [2] $end
$var wire 1 @ y [1] $end
$var wire 1 A y [0] $end
$var wire 1 B sampler $end
$scope module i1 $end
$var wire 1 C gnd $end
$var wire 1 D vcc $end
$var wire 1 E unknown $end
$var tri1 1 F devclrn $end
$var tri1 1 G devpor $end
$var tri1 1 H devoe $end
$var wire 1 I w~combout [31] $end
$var wire 1 J w~combout [30] $end
$var wire 1 K w~combout [29] $end
$var wire 1 L w~combout [28] $end
$var wire 1 M w~combout [27] $end
$var wire 1 N w~combout [26] $end
$var wire 1 O w~combout [25] $end
$var wire 1 P w~combout [24] $end
$var wire 1 Q w~combout [23] $end
$var wire 1 R w~combout [22] $end
$var wire 1 S w~combout [21] $end
$var wire 1 T w~combout [20] $end
$var wire 1 U w~combout [19] $end
$var wire 1 V w~combout [18] $end
$var wire 1 W w~combout [17] $end
$var wire 1 X w~combout [16] $end
$var wire 1 Y w~combout [15] $end
$var wire 1 Z w~combout [14] $end
$var wire 1 [ w~combout [13] $end
$var wire 1 \ w~combout [12] $end
$var wire 1 ] w~combout [11] $end
$var wire 1 ^ w~combout [10] $end
$var wire 1 _ w~combout [9] $end
$var wire 1 ` w~combout [8] $end
$var wire 1 a w~combout [7] $end
$var wire 1 b w~combout [6] $end
$var wire 1 c w~combout [5] $end
$var wire 1 d w~combout [4] $end
$var wire 1 e w~combout [3] $end
$var wire 1 f w~combout [2] $end
$var wire 1 g w~combout [1] $end
$var wire 1 h w~combout [0] $end
$upscope $end
$upscope $end
$enddefinitions $end
#0
$dumpvars
b11000000000000000000000000000011 !
0A
0@
1?
1>
0=
0<
0;
0:
09
08
07
06
05
04
03
02
01
00
0/
0.
0-
0,
0+
0*
0)
0(
0'
0&
0%
0$
0#
0"
xB
0C
1D
xE
1F
1G
1H
1h
1g
0f
0e
0d
0c
0b
0a
0`
0_
0^
0]
0\
0[
0Z
0Y
0X
0W
0V
0U
0T
0S
0R
0Q
0P
0O
0N
0M
0L
0K
zJ
zI
$end
#10000
b11000000000000000000000000000111 !
b11000000000000000000000000000101 !
b11000000000000000000000000000100 !
0h
0g
1f
0B
0?
0>
1=
#20000
b11000000000000000000000000000101 !
1h
1B
1?
#30000
b11000000000000000000000000000111 !
b11000000000000000000000000000110 !
0h
1g
0B
0?
1>
#40000
b11000000000000000000000000000111 !
1h
1B
1?
#50000
b11000000000000000000000000001111 !
b11000000000000000000000000001011 !
b11000000000000000000000000001001 !
b11000000000000000000000000001000 !
0h
0g
0f
1e
0B
0?
0>
0=
1<
#60000
b11000000000000000000000000001001 !
1h
1B
1?
#70000
b11000000000000000000000000001011 !
b11000000000000000000000000001010 !
0h
1g
0B
0?
1>
#80000
b11000000000000000000000000001011 !
1h
1B
1?
#90000
b11000000000000000000000000001111 !
b11000000000000000000000000001101 !
b11000000000000000000000000001100 !
0h
0g
1f
0B
0?
0>
1=
#100000
b11000000000000000000000000001101 !
1h
1B
1?
#110000
b11000000000000000000000000001111 !
b11000000000000000000000000001110 !
0h
1g
0B
0?
1>
#120000
b11000000000000000000000000001111 !
1h
1B
1?
#130000
b11000000000000000000000000011111 !
b11000000000000000000000000010111 !
b11000000000000000000000000010011 !
b11000000000000000000000000010001 !
b11000000000000000000000000010000 !
0h
0g
0f
0e
1d
0B
0?
0>
0=
0<
1;
#140000
b11000000000000000000000000010001 !
1h
1B
1?
#150000
b11000000000000000000000000010011 !
b11000000000000000000000000010010 !
0h
1g
0B
0?
1>
#160000
b11000000000000000000000000010011 !
1h
1B
1?
#170000
b11000000000000000000000000010111 !
b11000000000000000000000000010101 !
b11000000000000000000000000010100 !
0h
0g
1f
0B
0?
0>
1=
#180000
b11000000000000000000000000010101 !
1h
1B
1?
#190000
b11000000000000000000000000010111 !
b11000000000000000000000000010110 !
0h
1g
0B
0?
1>
#200000
b11000000000000000000000000010111 !
1h
1B
1?
#210000
b11000000000000000000000000011111 !
b11000000000000000000000000011011 !
b11000000000000000000000000011001 !
b11000000000000000000000000011000 !
0h
0g
0f
1e
0B
0?
0>
0=
1<
#220000
b11000000000000000000000000011001 !
1h
1B
1?
#230000
b11000000000000000000000000011011 !
b11000000000000000000000000011010 !
0h
1g
0B
0?
1>
#240000
b11000000000000000000000000011011 !
1h
1B
1?
#250000
b11000000000000000000000000011111 !
b11000000000000000000000000011101 !
b11000000000000000000000000011100 !
0h
0g
1f
0B
0?
0>
1=
#260000
b11000000000000000000000000011101 !
1h
1B
1?
#270000
b11000000000000000000000000011111 !
b11000000000000000000000000011110 !
0h
1g
0B
0?
1>
#280000
b11000000000000000000000000011111 !
1h
1B
1?
#290000
b11000000000000000000000000111111 !
b11000000000000000000000000101111 !
b11000000000000000000000000100111 !
b11000000000000000000000000100011 !
b11000000000000000000000000100001 !
b11000000000000000000000000100000 !
0h
0g
0f
0e
0d
1c
0B
0?
0>
0=
0<
0;
1:
#300000
b11000000000000000000000000100001 !
1h
1B
1?
#310000
b11000000000000000000000000100011 !
b11000000000000000000000000100010 !
0h
1g
0B
0?
1>
#320000
b11000000000000000000000000100011 !
1h
1B
1?
#330000
b11000000000000000000000000100111 !
b11000000000000000000000000100101 !
b11000000000000000000000000100100 !
0h
0g
1f
0B
0?
0>
1=
#340000
b11000000000000000000000000100101 !
1h
1B
1?
#350000
b11000000000000000000000000100111 !
b11000000000000000000000000100110 !
0h
1g
0B
0?
1>
#360000
b11000000000000000000000000100111 !
1h
1B
1?
#370000
b11000000000000000000000000101111 !
b11000000000000000000000000101011 !
b11000000000000000000000000101001 !
b11000000000000000000000000101000 !
0h
0g
0f
1e
0B
0?
0>
0=
1<
#380000
b11000000000000000000000000101001 !
1h
1B
1?
#390000
b11000000000000000000000000101011 !
b11000000000000000000000000101010 !
0h
1g
0B
0?
1>
#400000
b11000000000000000000000000101011 !
1h
1B
1?
#410000
b11000000000000000000000000101111 !
b11000000000000000000000000101101 !
b11000000000000000000000000101100 !
0h
0g
1f
0B
0?
0>
1=
#420000
b11000000000000000000000000101101 !
1h
1B
1?
#430000
b11000000000000000000000000101111 !
b11000000000000000000000000101110 !
0h
1g
0B
0?
1>
#440000
b11000000000000000000000000101111 !
1h
1B
1?
#450000
b11000000000000000000000000111111 !
b11000000000000000000000000110111 !
b11000000000000000000000000110011 !
b11000000000000000000000000110001 !
b11000000000000000000000000110000 !
0h
0g
0f
0e
1d
0B
0?
0>
0=
0<
1;
#460000
b11000000000000000000000000110001 !
1h
1B
1?
#470000
b11000000000000000000000000110011 !
b11000000000000000000000000110010 !
0h
1g
0B
0?
1>
#480000
b11000000000000000000000000110011 !
1h
1B
1?
#490000
b11000000000000000000000000110111 !
b11000000000000000000000000110101 !
b11000000000000000000000000110100 !
0h
0g
1f
0B
0?
0>
1=
#500000
b11000000000000000000000000110101 !
1h
1B
1?
#510000
b11000000000000000000000000110111 !
b11000000000000000000000000110110 !
0h
1g
0B
0?
1>
#520000
b11000000000000000000000000110111 !
1h
1B
1?
#530000
b11000000000000000000000000111111 !
b11000000000000000000000000111011 !
b11000000000000000000000000111001 !
b11000000000000000000000000111000 !
0h
0g
0f
1e
0B
0?
0>
0=
1<
#540000
b11000000000000000000000000111001 !
1h
1B
1?
#550000
b11000000000000000000000000111011 !
b11000000000000000000000000111010 !
0h
1g
0B
0?
1>
#560000
b11000000000000000000000000111011 !
1h
1B
1?
#570000
b11000000000000000000000000111111 !
b11000000000000000000000000111101 !
b11000000000000000000000000111100 !
0h
0g
1f
0B
0?
0>
1=
#580000
b11000000000000000000000000111101 !
1h
1B
1?
#590000
b11000000000000000000000000111111 !
b11000000000000000000000000111110 !
0h
1g
0B
0?
1>
#600000
b11000000000000000000000000111111 !
1h
1B
1?
#610000
b11000000000000000000000001111111 !
b11000000000000000000000001011111 !
b11000000000000000000000001001111 !
b11000000000000000000000001000111 !
b11000000000000000000000001000011 !
b11000000000000000000000001000001 !
b11000000000000000000000001000000 !
0h
0g
0f
0e
0d
0c
1b
0B
0?
0>
0=
0<
0;
0:
19
#620000
b11000000000000000000000001000001 !
1h
1B
1?
#630000
b11000000000000000000000001000011 !
b11000000000000000000000001000010 !
0h
1g
0B
0?
1>
#640000
b11000000000000000000000001000011 !
1h
1B
1?
#650000
b11000000000000000000000001000111 !
b11000000000000000000000001000101 !
b11000000000000000000000001000100 !
0h
0g
1f
0B
0?
0>
1=
#660000
b11000000000000000000000001000101 !
1h
1B
1?
#670000
b11000000000000000000000001000111 !
b11000000000000000000000001000110 !
0h
1g
0B
0?
1>
#680000
b11000000000000000000000001000111 !
1h
1B
1?
#690000
b11000000000000000000000001001111 !
b11000000000000000000000001001011 !
b11000000000000000000000001001001 !
b11000000000000000000000001001000 !
0h
0g
0f
1e
0B
0?
0>
0=
1<
#700000
b11000000000000000000000001001001 !
1h
1B
1?
#710000
b11000000000000000000000001001011 !
b11000000000000000000000001001010 !
0h
1g
0B
0?
1>
#720000
b11000000000000000000000001001011 !
1h
1B
1?
#730000
b11000000000000000000000001001111 !
b11000000000000000000000001001101 !
b11000000000000000000000001001100 !
0h
0g
1f
0B
0?
0>
1=
#740000
b11000000000000000000000001001101 !
1h
1B
1?
#750000
b11000000000000000000000001001111 !
b11000000000000000000000001001110 !
0h
1g
0B
0?
1>
#760000
b11000000000000000000000001001111 !
1h
1B
1?
#770000
b11000000000000000000000001011111 !
b11000000000000000000000001010111 !
b11000000000000000000000001010011 !
b11000000000000000000000001010001 !
b11000000000000000000000001010000 !
0h
0g
0f
0e
1d
0B
0?
0>
0=
0<
1;
#780000
b11000000000000000000000001010001 !
1h
1B
1?
#790000
b11000000000000000000000001010011 !
b11000000000000000000000001010010 !
0h
1g
0B
0?
1>
#800000
b11000000000000000000000001010011 !
1h
1B
1?
#810000
b11000000000000000000000001010111 !
b11000000000000000000000001010101 !
b11000000000000000000000001010100 !
0h
0g
1f
0B
0?
0>
1=
#820000
b11000000000000000000000001010101 !
1h
1B
1?
#830000
b11000000000000000000000001010111 !
b11000000000000000000000001010110 !
0h
1g
0B
0?
1>
#840000
b11000000000000000000000001010111 !
1h
1B
1?
#850000
b11000000000000000000000001011111 !
b11000000000000000000000001011011 !
b11000000000000000000000001011001 !
b11000000000000000000000001011000 !
0h
0g
0f
1e
0B
0?
0>
0=
1<
#860000
b11000000000000000000000001011001 !
1h
1B
1?
#870000
b11000000000000000000000001011011 !
b11000000000000000000000001011010 !
0h
1g
0B
0?
1>
#880000
b11000000000000000000000001011011 !
1h
1B
1?
#890000
b11000000000000000000000001011111 !
b11000000000000000000000001011101 !
b11000000000000000000000001011100 !
0h
0g
1f
0B
0?
0>
1=
#900000
b11000000000000000000000001011101 !
1h
1B
1?
#910000
b11000000000000000000000001011111 !
b11000000000000000000000001011110 !
0h
1g
0B
0?
1>
#920000
b11000000000000000000000001011111 !
1h
1B
1?
#930000
b11000000000000000000000001111111 !
b11000000000000000000000001101111 !
b11000000000000000000000001100111 !
b11000000000000000000000001100011 !
b11000000000000000000000001100001 !
b11000000000000000000000001100000 !
0h
0g
0f
0e
0d
1c
0B
0?
0>
0=
0<
0;
1:
#940000
b11000000000000000000000001100001 !
1h
1B
1?
#950000
b11000000000000000000000001100011 !
b11000000000000000000000001100010 !
0h
1g
0B
0?
1>
#960000
b11000000000000000000000001100011 !
1h
1B
1?
#970000
b11000000000000000000000001100111 !
b11000000000000000000000001100101 !
b11000000000000000000000001100100 !
0h
0g
1f
0B
0?
0>
1=
#980000
b11000000000000000000000001100101 !
1h
1B
1?
#990000
b11000000000000000000000001100111 !
b11000000000000000000000001100110 !
0h
1g
0B
0?
1>
