unidadControl/simulation/qsim/uControl.msim.vcd
$comment
	File created using the following command:
		vcd file uControl.msim.vcd -direction
$end
$date
	Sat May 18 18:40:18 2019
$end
$version
	ModelSim Version 10.1d
$end
$timescale
	1ps
$end
$scope module uControl_vlg_vec_tst $end
$var reg 1 ! clk $end
$var reg 6 " opcode [5:0] $end
$var reg 1 # reset $end
$var wire 1 $ aluOP [2] $end
$var wire 1 % aluOP [1] $end
$var wire 1 & aluOP [0] $end
$var wire 1 ' aluSrcA $end
$var wire 1 ( aluSrcB [1] $end
$var wire 1 ) aluSrcB [0] $end
$var wire 1 * branch $end
$var wire 1 + IorD $end
$var wire 1 , IRwrite $end
$var wire 1 - memRead $end
$var wire 1 . memToReg $end
$var wire 1 / memWrite $end
$var wire 1 0 PCsrc [1] $end
$var wire 1 1 PCsrc [0] $end
$var wire 1 2 pcWrite $end
$var wire 1 3 regDst $end
$var wire 1 4 regWrite $end
$var wire 1 5 sampler $end
$scope module i1 $end
$var wire 1 6 gnd $end
$var wire 1 7 vcc $end
$var wire 1 8 unknown $end
$var tri1 1 9 devclrn $end
$var tri1 1 : devpor $end
$var tri1 1 ; devoe $end
$var wire 1 < Equal1~0_combout $end
$var wire 1 = Equal2~0_combout $end
$var wire 1 > state.decode~0_combout $end
$var wire 1 ? reset~combout $end
$var wire 1 @ reset~clkctrl_outclk $end
$var wire 1 A state.decode~regout $end
$var wire 1 B state~18_combout $end
$var wire 1 C state.jump~regout $end
$var wire 1 D state~23_combout $end
$var wire 1 E state.memAddr~regout $end
$var wire 1 F state~21_combout $end
$var wire 1 G state.memWriteSig~regout $end
$var wire 1 H state~22_combout $end
$var wire 1 I state.Execute~regout $end
$var wire 1 J state.aluWriteBack~feeder_combout $end
$var wire 1 K state.aluWriteBack~regout $end
$var wire 1 L WideOr0~0_combout $end
$var wire 1 M state.fetch~regout $end
$var wire 1 N pcWrite~1_combout $end
$var wire 1 O clk~combout $end
$var wire 1 P clk~clkctrl_outclk $end
$var wire 1 Q state~19_combout $end
$var wire 1 R state.branchSig~regout $end
$var wire 1 S state~20_combout $end
$var wire 1 T state.memReadSig~regout $end
$var wire 1 U IorD~0_combout $end
$var wire 1 V memRead~0_combout $end
$var wire 1 W state.memWriteBack~0_combout $end
$var wire 1 X state.memWriteBack~regout $end
$var wire 1 Y aluSrcA~1_combout $end
$var wire 1 Z aluSrcB~0_combout $end
$var wire 1 [ regWrite~0_combout $end
$var wire 1 \ opcode~combout [5] $end
$var wire 1 ] opcode~combout [4] $end
$var wire 1 ^ opcode~combout [3] $end
$var wire 1 _ opcode~combout [2] $end
$var wire 1 ` opcode~combout [1] $end
$var wire 1 a opcode~combout [0] $end
$upscope $end
$upscope $end
$enddefinitions $end
#0
$dumpvars
0!
b100011 "
1#
0&
0%
0$
0'
1)
0(
0*
0+
1,
1-
0.
0/
01
00
12
03
04
x5
06
17
x8
19
1:
1;
1<
0=
1>
1?
1@
0A
0B
0C
0D
0E
0F
0G
0H
0I
0J
0K
1L
0M
1N
0O
0P
0Q
0R
0S
0T
0U
1V
0W
0X
0Y
1Z
0[
1a
1`
0_
0^
0]
1\
$end
#5000
1!
1O
1P
05
#10000
0!
0O
0P
15
#15000
1!
1O
1P
05
#20000
0!
0O
0P
15
#25000
1!
1O
1P
05
#30000
0!
0O
0P
15
#35000
1!
1O
1P
05
#40000
0!
0O
0P
15
#45000
1!
1O
1P
05
#50000
0!
0O
0P
15
#55000
1!
1O
1P
05
#60000
0!
0O
0P
15
#65000
1!
1O
1P
05
#70000
0!
0O
0P
15
#75000
1!
1O
1P
05
#80000
0!
0O
0P
15
#85000
1!
1O
1P
05
#90000
0!
0O
0P
15
#95000
1!
1O
1P
05
#100000
0!
0O
0P
15
#105000
1!
1O
1P
05
#110000
0!
0O
0P
15
#115000
1!
1O
1P
05
#120000
0!
0O
0P
15
#125000
1!
1O
1P
05
#130000
0!
0O
0P
15
#135000
1!
1O
1P
05
#140000
0!
0O
0P
15
#145000
1!
1O
1P
05
#150000
0!
0O
0P
15
#155000
1!
1O
1P
05
#160000
0!
0O
0P
15
#165000
1!
1O
1P
05
#170000
0!
0O
0P
15
#175000
1!
1O
1P
05
#180000
0!
0O
0P
15
#185000
1!
1O
1P
05
#190000
0!
0O
0P
15
#195000
1!
1O
1P
05
#200000
0!
0O
0P
15
#205000
1!
1O
1P
05
#210000
0!
0O
0P
15
#215000
1!
1O
1P
05
#220000
0!
0O
0P
15
#225000
1!
1O
1P
05
#230000
0!
0O
0P
15
#235000
1!
1O
1P
05
#240000
0!
0O
0P
15
#245000
1!
1O
1P
05
#250000
0!
0O
0P
15
#255000
1!
1O
1P
05
#260000
0!
0O
0P
15
#265000
1!
1O
1P
05
#270000
0!
0O
0P
15
#275000
1!
1O
1P
05
#280000
0!
0O
0P
15
#285000
1!
1O
1P
05
#290000
0!
0O
0P
15
#295000
1!
1O
1P
05
#300000
0!
0O
0P
15
#305000
1!
1O
1P
05
#310000
0!
0O
0P
15
#315000
1!
1O
1P
05
#320000
0!
0O
0P
15
#325000
1!
1O
1P
05
#330000
0!
0O
0P
15
#335000
1!
1O
1P
05
#340000
0!
0O
0P
15
#345000
1!
1O
1P
05
#350000
0!
0O
0P
15
#355000
1!
1O
1P
05
#360000
0!
0O
0P
15
#365000
1!
1O
1P
05
#370000
0!
0O
0P
15
#375000
1!
1O
1P
05
#380000
0!
0O
0P
15
#385000
1!
1O
1P
05
#390000
0!
0O
0P
15
#395000
1!
1O
1P
05
#400000
0!
0O
0P
15
#405000
1!
1O
1P
05
#410000
0!
0O
0P
15
#415000
1!
1O
1P
05
#420000
0!
0O
0P
15
#425000
1!
1O
1P
05
#430000
0!
0O
0P
15
#435000
1!
1O
1P
05
#440000
0!
0O
0P
15
#445000
1!
1O
1P
05
#450000
0!
0O
0P
15
#455000
1!
1O
1P
05
#460000
0!
0O
0P
15
#465000
1!
1O
1P
05
#470000
0!
0O
0P
15
#475000
1!
1O
1P
05
#480000
0!
0O
0P
15
#485000
1!
1O
1P
05
#490000
0!
0O
0P
15
#495000
1!
1O
1P
05
#500000
0!
0O
0P
15
#505000
1!
1O
1P
05
#510000
0!
0O
0P
15
#515000
1!
1O
1P
05
#520000
0!
0O
0P
15
#525000
1!
1O
1P
05
#530000
0!
0O
0P
15
#535000
1!
1O
1P
05
#540000
0!
0O
0P
15
#545000
1!
1O
1P
05
#550000
0!
0O
0P
15
#555000
1!
1O
1P
05
#560000
0!
0O
0P
15
#565000
1!
1O
1P
05
#570000
0!
0O
0P
15
#575000
1!
1O
1P
05
#580000
0!
0O
0P
15
#585000
1!
1O
1P
05
#590000
0!
0O
0P
15
#595000
1!
1O
1P
05
#600000
0!
0O
0P
15
#605000
1!
1O
1P
05
#610000
0!
0O
0P
15
#615000
1!
1O
1P
05
#620000
0!
0O
0P
15
#625000
1!
1O
1P
05
#630000
0!
0O
0P
15
#635000
1!
1O
1P
05
#640000
0!
0O
0P
15
#645000
1!
1O
1P
05
#650000
0!
0O
0P
15
#655000
1!
1O
1P
05
#660000
0!
0O
0P
15
#665000
1!
1O
1P
05
#670000
0!
0O
0P
15
#675000
1!
1O
1P
05
#680000
0!
0O
0P
15
#685000
1!
1O
1P
05
#690000
0!
0O
0P
15
#695000
1!
1O
1P
05
#700000
0!
0O
0P
15
#705000
1!
1O
1P
05
#710000
0!
0O
0P
15
#715000
1!
1O
1P
05
#720000
0!
0O
0P
15
#725000
1!
1O
1P
05
#730000
0!
0O
0P
15
#735000
1!
1O
1P
05
#740000
0!
0O
0P
15
#745000
1!
1O
1P
05
#750000
0!
0O
0P
15
#755000
1!
1O
1P
05
#760000
0!
0O
0P
15
#765000
1!
1O
1P
05
#770000
0!
0O
0P
15
#775000
1!
1O
1P
05
#780000
0!
0O
0P
15
#785000
1!
1O
1P
05
#790000
0!
0O
0P
15
#795000
1!
1O
1P
05
#800000
0!
0O
0P
15
#805000
1!
1O
1P
05
#810000
0!
0O
0P
15
#815000
1!
1O
1P
05
#820000
0!
0O
0P
15
#825000
1!
1O
1P
05
#830000
0!
0O
0P
15
#835000
1!
1O
1P
05
#840000
0!
0O
0P
15
#845000
1!
1O
1P
05
#850000
0!
0O
0P
15
#855000
1!
1O
1P
05
#860000
0!
0O
0P
15
#865000
1!
1O
1P
05
#870000
0!
0O
0P
15
#875000
1!
1O
1P
05
#880000
0!
0O
0P
15
#885000
1!
1O
1P
05
#890000
0!
0O
0P
15
#895000
1!
1O
1P
05
#900000
0!
0O
0P
15
#905000
1!
1O
1P
05
#910000
0!
0O
0P
15
#915000
1!
1O
1P
05
#920000
0!
0O
0P
15
#925000
1!
1O
1P
05
#930000
0!
0O
0P
15
#935000
1!
1O
1P
05
#940000
0!
0O
0P
15
#945000
1!
1O
1P
05
#950000
0!
0O
0P
15
#955000
1!
1O
1P
05
#960000
0!
0O
0P
15
#965000
1!
1O
1P
05
#970000
0!
0O
0P
15
#975000
1!
1O
1P
05
#980000
0!
0O
0P
15
#985000
1!
1O
1P
05
#990000
0!
0O
0P
15
#995000
1!
1O
1P
05
